{
    "name": "Dark-Purple",
    "index": 0,
    "paper": "#13002C",
    "text": "#FFFFFF",
    "caret": {
        "width": 2,
        "foreground": "#FFFFBE",
        "line-background": "#3C005A"
    },
    "colors": {
        "keyword1": "#FFFF00",
        "keyword2": "#00B910",
        "keyword3": "#00D1FF",


        "comment": "#0A96FF",
        "commentline": "#0A96FF",
        "commentdoc": "#17C600",
        "commentdockeyword": "#FFFF00",

        "number": "#D900FF",
        "string": "#32FF32",
        "operator": "#B47800",

        "whitespace-foreground": "#FFFFFF",

        "selection-foreground": "#FFFFFF",
        "selection-background": "#4E529A",

        "margin-background": "#330067",
        "margin-foreground": "#FFFF00",

        "matched-brace-background": "#13002C",
        "matched-brace-foreground": "#004DB1",
        "unmatched-brace-background": "#13002C",
        "unmatched-brace-foreground": "#BE0000",

        "error-marker": "#FF0000",
        "error-indicator": "#30ff0000",
        "error-indicator-outline": "ff000000",

        "edge": "#ffffff"
         
    }
}
